%YAML 1.1
%TAG !u! tag:unity3d.com,2011:
--- !u!1 &7276516424460219072
GameObject:
  m_ObjectHideFlags: 0
  m_CorrespondingSourceObject: {fileID: 0}
  m_PrefabInstance: {fileID: 0}
  m_PrefabAsset: {fileID: 0}
  serializedVersion: 6
  m_Component:
  - component: {fileID: 7276516424460219075}
  - component: {fileID: 7276516424460219101}
  - component: {fileID: 7276516424460219074}
  m_Layer: 0
  m_Name: Controller
  m_TagString: Untagged
  m_Icon: {fileID: 0}
  m_NavMeshLayer: 0
  m_StaticEditorFlags: 0
  m_IsActive: 1
--- !u!4 &7276516424460219075
Transform:
  m_ObjectHideFlags: 0
  m_CorrespondingSourceObject: {fileID: 0}
  m_PrefabInstance: {fileID: 0}
  m_PrefabAsset: {fileID: 0}
  m_GameObject: {fileID: 7276516424460219072}
  m_LocalRotation: {x: 0, y: 0, z: 0, w: 1}
  m_LocalPosition: {x: 0, y: 0, z: 0}
  m_LocalScale: {x: 1, y: 1, z: 1}
  m_Children: []
  m_Father: {fileID: 0}
  m_RootOrder: 0
  m_LocalEulerAnglesHint: {x: 0, y: 0, z: 0}
--- !u!114 &7276516424460219101
MonoBehaviour:
  m_ObjectHideFlags: 0
  m_CorrespondingSourceObject: {fileID: 0}
  m_PrefabInstance: {fileID: 0}
  m_PrefabAsset: {fileID: 0}
  m_GameObject: {fileID: 7276516424460219072}
  m_Enabled: 1
  m_EditorHideFlags: 0
  m_Script: {fileID: 11500000, guid: e425379cceca6be49b495b0abc170860, type: 3}
  m_Name: 
  m_EditorClassIdentifier: 
  showDebug: 0
  mazeMat1: {fileID: 2100000, guid: 2019d743bc0984ba1b81150901d44455, type: 2}
  mazeMat2: {fileID: 2100000, guid: a36a45d20a42a4a0695e782d8b69409e, type: 2}
  startMat: {fileID: 2100000, guid: c8296ee06001c4d39b0f615626264b85, type: 2}
  treasureMat: {fileID: 2100000, guid: c5b8154923bae4fedbbb1f1aca66fd98, type: 2}
--- !u!114 &7276516424460219074
MonoBehaviour:
  m_ObjectHideFlags: 0
  m_CorrespondingSourceObject: {fileID: 0}
  m_PrefabInstance: {fileID: 0}
  m_PrefabAsset: {fileID: 0}
  m_GameObject: {fileID: 7276516424460219072}
  m_Enabled: 1
  m_EditorHideFlags: 0
  m_Script: {fileID: 11500000, guid: 7c8c55f3138dbf041a1f84d0dfeb14af, type: 3}
  m_Name: 
  m_EditorClassIdentifier: 
  timeLabel: {fileID: 0}
  scoreLabel: {fileID: 0}
